{
  "project_info": {
    "project_number": "143468178905",
    "firebase_url": "https://dating-874fb.firebaseio.com",
    "project_id": "dating-874fb",
    "storage_bucket": "dating-874fb.appspot.com"
  },
  "client": [
    {
      "client_info": {
        "mobilesdk_app_id": "1:143468178905:android:72298203f776a8c0",
        "android_client_info": {
          "package_name": "com.creations.date"
        }
      },
      "oauth_client": [
        {
          "client_id": "143468178905-435sahq08mnpou8v68ia8dk46u7d4ffa.apps.googleusercontent.com",
          "client_type": 1,
          "android_info": {
            "package_name": "com.creations.date",
            "certificate_hash": "073855b686532ef32b7228a4a3616bb38631461f"
          }
        },
        {
          "client_id": "143468178905-8nb49oa8nnvjfdaon2gj98ile60lst96.apps.googleusercontent.com",
          "client_type": 3
        }
      ],
      "api_key": [
        {
          "current_key": "AIzaSyBRklYXqK8IpofyJeRqHIly3_x2Trbecj0"
        }
      ],
      "services": {
        "appinvite_service": {
          "other_platform_oauth_client": [
            {
              "client_id": "143468178905-8nb49oa8nnvjfdaon2gj98ile60lst96.apps.googleusercontent.com",
              "client_type": 3
            }
          ]
        }
      }
    }
  ],
  "configuration_version": "1"
}